[38;5;4mℹ Using GPU: 0[0m
[1m
========================= Generating Prodigy config =========================[0m
[38;5;2m✔ Generated training config[0m
[1m
=========================== Initializing pipeline ===========================[0m
[38;5;2m✔ Initialized pipeline[0m
[1m
============================= Training pipeline =============================[0m
[38;5;4mℹ Pipeline: ['tok2vec', 'ner'][0m
[38;5;4mℹ Initial learn rate: 0.001[0m
E    #       LOSS TOK2VEC  LOSS NER  ENTS_F  ENTS_P  ENTS_R  SCORE 
---  ------  ------------  --------  ------  ------  ------  ------
  0       0          0.00    141.71    0.00    0.00    0.00    0.00
  0     200       1904.49   6679.92   17.97   20.23   16.16    0.18
  1     400       4642.35   7071.14    8.13   11.39    6.32    0.08
  1     600        950.55   3609.30   26.39   32.42   22.25    0.26
  2     800        325.36   2472.07   27.52   30.17   25.29    0.28
  3    1000        341.33   2452.95   35.83   41.74   31.38    0.36
  3    1200        419.71   2089.20   30.77   33.99   28.10    0.31
  4    1400        707.29   2012.58   36.22   40.46   32.79    0.36
  5    1600        665.57   1733.97   35.67   40.91   31.62    0.36
  5    1800        935.90   2021.38   36.78   43.08   32.08    0.37
  6    2000        944.23   1626.29   34.64   42.91   29.04    0.35
  7    2200       1151.29   1707.41   29.65   39.08   23.89    0.30
  8    2400       1331.69   1702.68   34.30   41.89   29.04    0.34
  8    2600       1069.63   1289.51   33.87   39.75   29.51    0.34
  9    2800       1388.47   1447.27   32.56   38.71   28.10    0.33
 10    3000       1736.19   1497.16   35.16   42.52   29.98    0.35
 11    3200       1363.66   1189.21   32.73   40.14   27.63    0.33
 12    3400       2052.12   1389.45   34.91   39.70   31.15    0.35
[38;5;2m✔ Saved pipeline to output directory[0m
../Models/basic-13/model-last
[1m
=============================== NER (per type) ===============================[0m

                     P       R       F
criminal         56.79   30.46   39.66
other_party      41.07   46.31   43.53
secondary_cong   31.88   17.32   22.45

