[38;5;4mℹ Using GPU: 0[0m
[1m
========================= Generating Prodigy config =========================[0m
[38;5;2m✔ Generated training config[0m
[1m
=========================== Initializing pipeline ===========================[0m
[38;5;2m✔ Initialized pipeline[0m
[1m
============================= Training pipeline =============================[0m
[38;5;4mℹ Pipeline: ['transformer', 'ner'][0m
[38;5;4mℹ Initial learn rate: 0.0[0m
E    #       LOSS TRANS...  LOSS NER  ENTS_F  ENTS_P  ENTS_R  SCORE 
---  ------  -------------  --------  ------  ------  ------  ------
  0       0        1094.45   1054.51    1.07    0.60    4.68    0.01
  3     200     1296215.49  70949.68   20.59   23.99   18.03    0.21
  6     400      734010.95  49144.65   23.43   31.25   18.74    0.23
 10     600      295730.10  35791.30    0.00    0.00    0.00    0.00
 13     800      440028.19  43662.11    2.03    7.69    1.17    0.02
 16    1000      361560.91  28329.35   39.90   40.48   39.34    0.40
 20    1200      129975.57  25574.05   40.73   42.21   39.34    0.41
 23    1400       14869.22  15385.21   56.87   57.55   56.21    0.57
 26    1600       25434.93  14041.56   36.73   39.67   34.19    0.37
 29    1800      118579.10  16057.02   48.60   50.77   46.60    0.49
 33    2000        3270.42   8763.06   56.69   58.99   54.57    0.57
 36    2200        2657.75   7858.39   57.68   58.23   57.14    0.58
 40    2400        1582.35   6645.66   54.29   55.21   53.40    0.54
 43    2600        3839.36   5862.22   56.63   58.31   55.04    0.57
 46    2800        8135.80   5257.23   64.54   65.16   63.93    0.65
 50    3000        1368.09   4476.52   59.81   61.12   58.55    0.60
 53    3200        1647.68   3886.67   57.86   59.36   56.44    0.58
 56    3400       13014.10   3550.35   60.40   60.61   60.19    0.60
 60    3600        7261.20   3211.77   58.20   61.46   55.27    0.58
 63    3800        2455.21   2754.47   58.96   59.38   58.55    0.59
 66    4000         794.83   2323.08   60.95   61.99   59.95    0.61
 70    4200         434.39   1907.26   62.72   63.40   62.06    0.63
 73    4400        1019.15   1652.61   61.05   61.93   60.19    0.61
[38;5;2m✔ Saved pipeline to output directory[0m
../Models/bert-11/model-last
[1m
=============================== NER (per type) ===============================[0m

                     P       R       F
criminal         75.56   67.55   71.33
other_party      62.80   69.13   65.81
secondary_cong   56.67   53.54   55.06

