[38;5;4mℹ Using GPU: 0[0m
[1m
========================= Generating Prodigy config =========================[0m
[38;5;2m✔ Generated training config[0m
[1m
=========================== Initializing pipeline ===========================[0m
[38;5;2m✔ Initialized pipeline[0m
[1m
============================= Training pipeline =============================[0m
[38;5;4mℹ Pipeline: ['tok2vec', 'ner'][0m
[38;5;4mℹ Initial learn rate: 0.001[0m
E    #       LOSS TOK2VEC  LOSS NER  ENTS_F  ENTS_P  ENTS_R  SCORE 
---  ------  ------------  --------  ------  ------  ------  ------
  0       0          0.00    141.71    0.00    0.00    0.00    0.00
  0     200      20513.16   7678.35   12.36   13.39   11.48    0.12
  1     400      11372.35   4909.24   31.49   34.06   29.27    0.31
  1     600      12533.67   3664.78   29.54   36.97   24.59    0.30
  2     800       1631.71   3036.05   34.94   38.02   32.32    0.35
  3    1000       2827.70   3205.68   33.47   40.40   28.57    0.33
  3    1200        443.76   2300.08   42.84   44.87   40.98    0.43
  4    1400        619.65   2347.37   44.28   47.83   41.22    0.44
  5    1600        603.82   1767.96   44.28   47.21   41.69    0.44
  5    1800        781.77   2004.66   45.83   48.94   43.09    0.46
  6    2000        721.88   1949.09   43.31   49.25   38.64    0.43
  7    2200        870.74   1779.98   32.45   39.80   27.40    0.32
  8    2400       1259.59   1958.75   38.87   45.45   33.96    0.39
  8    2600       1019.32   1508.33   38.69   41.73   36.07    0.39
  9    2800       1500.67   1746.66   40.35   43.72   37.47    0.40
 10    3000       1505.79   1479.40   41.77   45.45   38.64    0.42
 11    3200       1816.92   1563.23   41.04   46.06   37.00    0.41
 12    3400       2160.49   1682.09   40.81   44.14   37.94    0.41
[38;5;2m✔ Saved pipeline to output directory[0m
../Models/vec_vectors-e5-d100-3/model-last
[1m
=============================== NER (per type) ===============================[0m

                     P       R       F
criminal         58.59   38.41   46.40
other_party      46.60   64.43   54.08
secondary_cong   42.25   23.62   30.30

