[38;5;4mℹ Using GPU: 0[0m
[1m
========================= Generating Prodigy config =========================[0m
[38;5;2m✔ Generated training config[0m
[1m
=========================== Initializing pipeline ===========================[0m
[38;5;2m✔ Initialized pipeline[0m
[1m
============================= Training pipeline =============================[0m
[38;5;4mℹ Pipeline: ['tok2vec', 'ner'][0m
[38;5;4mℹ Initial learn rate: 0.001[0m
E    #       LOSS TOK2VEC  LOSS NER  ENTS_F  ENTS_P  ENTS_R  SCORE 
---  ------  ------------  --------  ------  ------  ------  ------
  0       0          0.00    141.71    0.00    0.00    0.00    0.00
  0     200       3066.92   5626.43   18.05   25.21   14.05    0.18
  1     400       6051.02   3499.98   29.96   32.09   28.10    0.30
  1     600       1133.17   3045.70   36.81   41.59   33.02    0.37
  2     800       4958.81   2686.37   34.86   38.16   32.08    0.35
  3    1000        567.69   2601.26   34.89   42.19   29.74    0.35
  3    1200        401.15   2312.78   40.10   42.52   37.94    0.40
  4    1400        630.39   2209.27   36.41   38.93   34.19    0.36
  5    1600        472.27   1769.61   39.50   42.06   37.24    0.40
  5    1800        766.90   1960.92   44.72   47.03   42.62    0.45
  6    2000        799.17   1708.93   40.46   44.63   37.00    0.40
  7    2200       1060.81   1815.68   42.64   47.55   38.64    0.43
  8    2400       1196.21   1834.87   41.56   44.96   38.64    0.42
  8    2600       1111.25   1575.83   38.08   42.61   34.43    0.38
  9    2800       1447.37   1667.57   40.41   44.17   37.24    0.40
 10    3000       1403.59   1688.62   37.28   41.31   33.96    0.37
 11    3200       1459.81   1439.48   37.07   41.14   33.72    0.37
 12    3400       1811.37   1443.45   37.84   42.00   34.43    0.38
[38;5;2m✔ Saved pipeline to output directory[0m
../Models/vec_vectors-e30-d300-16/model-last
[1m
=============================== NER (per type) ===============================[0m

                     P       R       F
criminal         57.85   46.36   51.47
other_party      43.62   55.03   48.66
secondary_cong   38.46   23.62   29.27

