[38;5;4mℹ Using GPU: 0[0m
[1m
========================= Generating Prodigy config =========================[0m
[38;5;2m✔ Generated training config[0m
[1m
=========================== Initializing pipeline ===========================[0m
[38;5;2m✔ Initialized pipeline[0m
[1m
============================= Training pipeline =============================[0m
[38;5;4mℹ Pipeline: ['tok2vec', 'ner'][0m
[38;5;4mℹ Initial learn rate: 0.001[0m
E    #       LOSS TOK2VEC  LOSS NER  ENTS_F  ENTS_P  ENTS_R  SCORE 
---  ------  ------------  --------  ------  ------  ------  ------
  0       0          0.00    141.71    0.71    0.51    1.17    0.01
  0     200       8470.68   6415.34    8.87   10.00    7.96    0.09
  1     400        455.18   3304.94   24.59   29.51   21.08    0.25
  1     600        422.65   2778.59   36.70   41.67   32.79    0.37
  2     800        282.99   2655.34   40.40   42.89   38.17    0.40
  3    1000       4639.30   2516.11   34.19   43.64   28.10    0.34
  3    1200        389.84   2227.11   40.50   43.12   38.17    0.40
  4    1400        466.12   2078.17   36.22   39.78   33.26    0.36
  5    1600        545.03   1778.05   39.20   42.28   36.53    0.39
  5    1800        809.90   2121.79   37.56   40.05   35.36    0.38
  6    2000        782.44   1770.39   34.13   39.63   29.98    0.34
  7    2200        935.96   1935.52   39.34   42.94   36.30    0.39
  8    2400       1078.69   1933.77   40.41   45.22   36.53    0.40
  8    2600       1139.74   1609.10   36.25   40.88   32.55    0.36
  9    2800       1263.15   1925.30   39.59   43.54   36.30    0.40
[38;5;2m✔ Saved pipeline to output directory[0m
../Models/vec_vectors-e10-d1000-4/model-last
[1m
=============================== NER (per type) ===============================[0m

                     P       R       F
criminal         39.90   50.99   44.77
other_party      46.49   57.72   51.50
secondary_cong    0.00    0.00    0.00

