[38;5;4mℹ Using GPU: 0[0m
[1m
========================= Generating Prodigy config =========================[0m
[38;5;2m✔ Generated training config[0m
[1m
=========================== Initializing pipeline ===========================[0m
[38;5;2m✔ Initialized pipeline[0m
[1m
============================= Training pipeline =============================[0m
[38;5;4mℹ Pipeline: ['tok2vec', 'ner'][0m
[38;5;4mℹ Initial learn rate: 0.001[0m
E    #       LOSS TOK2VEC  LOSS NER  ENTS_F  ENTS_P  ENTS_R  SCORE 
---  ------  ------------  --------  ------  ------  ------  ------
  0       0          0.00    141.71    0.44    0.32    0.70    0.00
  0     200       1211.92   6144.01    5.58    6.90    4.68    0.06
  1     400        325.59   3579.79   20.43   26.49   16.63    0.20
  1     600        248.52   3090.96   32.05   36.89   28.34    0.32
  2     800        257.48   2783.27   33.02   32.79   33.26    0.33
  3    1000        339.33   2286.45   35.56   45.29   29.27    0.36
  3    1200       1030.61   2534.84   36.07   37.89   34.43    0.36
  4    1400        599.01   2323.54   46.21   49.21   43.56    0.46
  5    1600        493.40   1875.33   43.21   45.69   40.98    0.43
  5    1800        758.10   2154.84   42.52   45.03   40.28    0.43
  6    2000        771.77   1761.74   42.78   47.56   38.88    0.43
  7    2200       1053.99   2066.36   42.60   46.78   39.11    0.43
  8    2400       1865.20   2043.33   38.93   42.62   35.83    0.39
  8    2600       1017.40   1674.85   39.75   42.93   37.00    0.40
  9    2800       1375.30   1724.27   40.51   44.41   37.24    0.41
 10    3000       1480.68   1642.30   39.38   43.71   35.83    0.39
[38;5;2m✔ Saved pipeline to output directory[0m
../Models/vec_vectors-e1000-d1000-14/model-last
[1m
=============================== NER (per type) ===============================[0m

                     P       R       F
criminal         48.00   47.68   47.84
other_party      54.23   51.68   52.92
secondary_cong   43.02   29.13   34.74

