[38;5;4mℹ Using GPU: 0[0m
[1m
========================= Generating Prodigy config =========================[0m
[38;5;2m✔ Generated training config[0m
[1m
=========================== Initializing pipeline ===========================[0m
[38;5;2m✔ Initialized pipeline[0m
[1m
============================= Training pipeline =============================[0m
[38;5;4mℹ Pipeline: ['tok2vec', 'ner'][0m
[38;5;4mℹ Initial learn rate: 0.001[0m
E    #       LOSS TOK2VEC  LOSS NER  ENTS_F  ENTS_P  ENTS_R  SCORE 
---  ------  ------------  --------  ------  ------  ------  ------
  0       0          0.00    141.71    0.00    0.00    0.00    0.00
  0     200      10287.22   8305.25   14.42   14.56   14.29    0.14
  1     400      33365.85   7176.59   28.29   30.08   26.70    0.28
  1     600        833.57   2743.27   31.87   36.81   28.10    0.32
  2     800        525.78   2349.58   37.19   39.22   35.36    0.37
  3    1000        360.01   2315.25   31.09   35.54   27.63    0.31
  3    1200        475.07   2474.43   37.52   40.88   34.66    0.38
  4    1400        593.42   2205.37   41.61   43.29   40.05    0.42
  5    1600        726.75   2031.98   41.34   43.83   39.11    0.41
  5    1800        688.65   2015.90   45.41   48.28   42.86    0.45
  6    2000        905.87   1759.73   39.58   45.32   35.13    0.40
  7    2200        949.75   1964.76   38.36   40.96   36.07    0.38
  8    2400       1071.34   1815.03   43.77   47.91   40.28    0.44
  8    2600       1147.52   1458.58   39.24   43.02   36.07    0.39
  9    2800       1445.95   1669.44   38.78   42.58   35.60    0.39
 10    3000       1503.36   1572.14   36.10   37.66   34.66    0.36
 11    3200       1553.65   1491.87   37.63   44.16   32.79    0.38
 12    3400       1733.27   1357.09   38.17   43.20   34.19    0.38
[38;5;2m✔ Saved pipeline to output directory[0m
../Models/vec_vectors-e1000-d100-11/model-last
[1m
=============================== NER (per type) ===============================[0m

                     P       R       F
criminal         54.62   43.05   48.15
other_party      44.05   67.11   53.19
secondary_cong   54.55   14.17   22.50

