[38;5;4mℹ Using GPU: 0[0m
[1m
========================= Generating Prodigy config =========================[0m
[38;5;2m✔ Generated training config[0m
[1m
=========================== Initializing pipeline ===========================[0m
[38;5;2m✔ Initialized pipeline[0m
[1m
============================= Training pipeline =============================[0m
[38;5;4mℹ Pipeline: ['tok2vec', 'ner'][0m
[38;5;4mℹ Initial learn rate: 0.001[0m
E    #       LOSS TOK2VEC  LOSS NER  ENTS_F  ENTS_P  ENTS_R  SCORE 
---  ------  ------------  --------  ------  ------  ------  ------
  0       0          0.00    141.71    0.00    0.00    0.00    0.00
  0     200       9205.04   9396.69    0.00    0.00    0.00    0.00
  1     400       5355.85   6089.18   30.79   33.70   28.34    0.31
  1     600       1177.02   3564.82   32.20   36.50   28.81    0.32
  2     800        466.47   2823.62   37.11   41.26   33.72    0.37
  3    1000       1083.13   3020.07   36.44   47.04   29.74    0.36
  3    1200        383.47   2104.56   39.65   43.01   36.77    0.40
  4    1400        803.51   2315.56   34.76   37.60   32.32    0.35
  5    1600        453.35   1781.27   39.55   42.18   37.24    0.40
  5    1800        719.57   2187.80   41.22   45.13   37.94    0.41
  6    2000        825.18   1757.09   34.70   39.94   30.68    0.35
  7    2200        843.89   1966.71   34.10   37.68   31.15    0.34
  8    2400       1023.77   1827.25   39.19   42.58   36.30    0.39
  8    2600       1189.53   1767.59   39.56   41.88   37.47    0.40
  9    2800       1258.30   1835.57   40.40   43.51   37.70    0.40
 10    3000       1283.35   1538.81   37.80   39.44   36.30    0.38
 11    3200       1506.89   1715.98   36.12   41.72   31.85    0.36
 12    3400       1705.62   1664.02   40.40   43.51   37.70    0.40
[38;5;2m✔ Saved pipeline to output directory[0m
../Models/vec_vectors-e30-d100-5/model-last
[1m
=============================== NER (per type) ===============================[0m

                     P       R       F
criminal         48.39   39.74   43.64
other_party      46.38   42.95   44.60
secondary_cong   39.18   29.92   33.93

